<svg width="24" height="24" viewBox="0 0 24 24" fill="none" xmlns="http://www.w3.org/2000/svg">
<g clip-path="url(#clip0)">
<path d="M18.758 11.4468L7.55136 0.240644C7.39099 0.0804394 7.20644 0 6.99814 0C6.78976 0 6.6053 0.0804394 6.44501 0.240644L5.2428 1.44311C5.08225 1.6034 5.00232 1.78752 5.00232 1.99624C5.00232 2.20497 5.08225 2.38909 5.2428 2.54938L14.6937 12.0003L5.2428 21.4514C5.08225 21.6117 5.00232 21.7961 5.00232 22.0043C5.00232 22.2129 5.08225 22.3974 5.2428 22.5577L6.44509 23.7597C6.60538 23.9202 6.78984 24.0001 6.99823 24.0001C7.20653 24.0001 7.39099 23.92 7.55136 23.7597L18.7575 12.5534C18.9177 12.3932 18.9978 12.2087 18.9978 12.0003C18.9978 11.7919 18.9183 11.6074 18.758 11.4468Z" fill="black"/>
</g>
<defs>
<clipPath id="clip0">
<rect width="24" height="24.0001" fill="white"/>
</clipPath>
</defs>
</svg>
