<svg width="24" height="24" viewBox="0 0 24 24" fill="none" xmlns="http://www.w3.org/2000/svg">
<path d="M19.2985 13.5335C18.4328 11.4219 17.9998 9.19654 17.9998 6.85719C17.9998 5.38402 17.5715 4.21448 16.7146 3.34831C15.8571 2.48218 14.6784 1.95971 13.1784 1.78122C13.2497 1.62061 13.2853 1.45544 13.2853 1.28577C13.2853 0.928609 13.1604 0.62478 12.9105 0.37499C12.6606 0.124918 12.357 0 11.9998 0C11.6428 0 11.3392 0.124918 11.0891 0.37499C10.8391 0.624967 10.7142 0.928609 10.7142 1.28577C10.7142 1.45544 10.7498 1.62047 10.8214 1.78122C9.32136 1.9599 8.14273 2.48214 7.28561 3.34831C6.42853 4.21444 6.00002 5.38397 6.00002 6.85719C6.00002 9.19654 5.5671 11.4219 4.70093 13.5335C3.8348 15.6451 2.55362 17.4198 0.857117 18.8573C0.857117 19.3215 1.02679 19.7234 1.36608 20.0625C1.70532 20.4017 2.10705 20.5716 2.5715 20.5716H8.57147C8.57147 21.5181 8.90617 22.3261 9.57584 22.9956C10.2456 23.6651 11.0537 24 12 24C12.9465 24 13.7546 23.6651 14.424 22.9956C15.0935 22.3261 15.4284 21.5181 15.4284 20.5716H21.4284C21.8927 20.5716 22.2948 20.4021 22.6337 20.0625C22.973 19.7234 23.1427 19.3215 23.1427 18.8573C21.4465 17.4198 20.1652 15.6451 19.2985 13.5335ZM12 22.9285C11.3482 22.9285 10.7922 22.6988 10.3325 22.239C9.87273 21.7791 9.64278 21.223 9.64278 20.5712C9.64278 20.4284 9.71427 20.357 9.85706 20.357C9.99994 20.357 10.0714 20.4284 10.0714 20.5712C10.0714 21.0981 10.2611 21.5511 10.6405 21.9308C11.0201 22.3104 11.4731 22.5 12 22.5C12.1428 22.5 12.2146 22.5718 12.2146 22.7143C12.2147 22.8572 12.1429 22.9285 12 22.9285Z" fill="black"/>
</svg>
