<svg width="24" height="24" viewBox="0 0 24 24" fill="none" xmlns="http://www.w3.org/2000/svg">
<path d="M23.4299 6.16177L22.2747 5.00628C21.8745 4.62644 21.4069 4.43646 20.8733 4.43646C20.3286 4.43646 19.8667 4.62644 19.4867 5.00628L12 12.4931L4.51346 5.00649C4.13351 4.62665 3.67144 4.43668 3.12699 4.43668C2.59305 4.43668 2.12565 4.62665 1.7253 5.00649L0.585353 6.16198C0.195046 6.55202 0 7.01943 0 7.56378C0 8.11827 0.195261 8.58039 0.585299 8.95003L10.6135 18.9783C10.9834 19.3684 11.4453 19.5636 12 19.5636C12.5443 19.5636 13.0116 19.3684 13.4016 18.9783L23.4298 8.95003C23.8098 8.56997 23.9999 8.10791 23.9999 7.56378C24 7.02957 23.8099 6.56243 23.4299 6.16177Z" fill="black"/>
</svg>
