<svg width="24" height="24" viewBox="0 0 24 24" fill="none" xmlns="http://www.w3.org/2000/svg">
<path d="M23.4145 15.0349L13.4016 5.00649C13.0013 4.62643 12.534 4.4364 12 4.4364C11.4557 4.4364 10.9937 4.62638 10.6136 5.00649L0.585299 15.0349C0.195046 15.4249 0 15.8923 0 16.4366C0 16.9912 0.195261 17.4533 0.585299 17.8228L1.74052 18.9782C2.11032 19.3683 2.5725 19.5637 3.12699 19.5637C3.68153 19.5637 4.1436 19.3683 4.51346 18.9782L12 11.507L19.4867 18.978C19.8561 19.368 20.3183 19.5635 20.8733 19.5635C21.4173 19.5635 21.8848 19.368 22.2747 18.978L23.4299 17.8227C23.8099 17.4427 24 16.9806 24 16.4365C24 15.8921 23.805 15.4248 23.4145 15.0349Z" fill="black"/>
</svg>
