<svg width="24" height="24" viewBox="0 0 24 24" fill="none" xmlns="http://www.w3.org/2000/svg">
<g clip-path="url(#clip0)">
<path d="M0 17.41V24.0001H6.59009L19.7702 10.8199L13.18 4.2298L0 17.41ZM5.75042 21.9723L4.05534 21.9725V19.9447H2.02772V18.2495L3.4693 16.8079L7.192 20.5305L5.75042 21.9723ZM13.6874 6.92296C13.9194 6.92296 14.0356 7.0392 14.0356 7.27141C14.0356 7.37717 13.9988 7.46678 13.9247 7.54085L5.3385 16.127C5.26454 16.2007 5.17471 16.2377 5.06917 16.2377C4.83702 16.2377 4.72078 16.1213 4.72078 15.8893C4.72078 15.7835 4.75773 15.6939 4.83158 15.6198L13.4178 7.03382C13.4916 6.95991 13.5814 6.92296 13.6874 6.92296Z" fill="black"/>
<path d="M23.4137 4.30869L19.6911 0.601909C19.2898 0.200803 18.8092 0 18.2494 0C17.6789 0 17.204 0.200803 16.8238 0.601909L14.1942 3.21578L20.7844 9.80582L23.414 7.17624C23.8048 6.78546 24 6.31022 24 5.75043C23.9998 5.20139 23.8046 4.72072 23.4137 4.30869Z" fill="black"/>
</g>
<defs>
<clipPath id="clip0">
<rect width="24" height="24" fill="white"/>
</clipPath>
</defs>
</svg>
